…
games_clean <- games_raw %>%
  as_tibble() %>%
  clean_names() %>%
  select(schedule_week, schedule_away_team_abbreviation, schedule_home_team_abbreviation, score_away_score_total, score_home_score_total, score_quarters) %>%
  rename(away_team = schedule_away_team_abbreviation,
         home_team = schedule_home_team_abbreviation,
         away_score_final = score_away_score_total,
         home_score_final = score_home_score_total) %>%
  unnest(score_quarters) %>% # was a list with 3 variables before, this unnests the list
  mutate(final_score_diff = abs(away_score_final-home_score_final), 
         total_score_combine = away_score_final+home_score_final)

games_clean

## # A tibble: 64 x 10
##    schedule_week away_team home_team away_score_final home_score_final
##            <int> <chr>     <chr>                <int>            <int>
##  1             1 WAS       NE                      13               22
##  2             1 WAS       NE                      13               22
##  3             1 WAS       NE                      13               22
##  4             1 WAS       NE                      13               22
##  5             1 PIT       PHI                     24               16
##  6             1 PIT       PHI                     24               16
##  7             1 PIT       PHI                     24               16
##  8             1 PIT       PHI                     24               16
##  9             1 TEN       ATL                     16                3
## 10             1 TEN       ATL                     16                3
## # ... with 54 more rows, and 5 more variables: quarterNumber <int>,
## #   awayScore <int>, homeScore <int>, final_score_diff <int>,
## #   total_score_combine <int>
…
